DACSS 601: Data Science Fundamentals - FALL 2022 - DACSS 601 Final Project
…
Mostly, white people have received the capital punishment in all regions across all the years, however, there are some exceptions. For example, it seems that South Atlantic executed Black people the most in the years 1650 to 1850. This same trend was seen in the graph above. Similarly, Native Americans were executed the most in year 1700 to 1850 in the Pacific region. Overall, these 3 races have been executed the most across all regions and years.

Total Number of Executions by Race and Sex

per_race_sex <- data %>% group_by(Year,Race, Sex) %>% 
  tally()

per_race_sex

# A tibble: 744 × 4
# Groups:   Year, Race [670]
    Year Race  Sex        n
   <int> <chr> <chr>  <int>
 1  1608 White Male       1
 2  1622 White Male       1
 3  1624 White Male       1
 4  1626 White Male       1
 5  1637 White Male       1
 6  1638 White Male       4
 7  1641 Black Male       1
 8  1641 White Male       1
 9  1642 White Male       2
10  1643 White Female     1
# … with 734 more rows
…
