DACSS 601: Data Science Fundamentals - FALL 2022 - SF Library Usage Analysis
…
Warning: package 'directlabels' was built under R version 4.2.2

knitr::opts_chunk$set(echo = TRUE, warning=FALSE, message=FALSE)

DATA

Loading the dataset

The dataset - SF Integrated Learning System is sourced from Kaggle.com and is composed of bibliographic records including inventoried items, patron records, and circulation data. The data is used in the daily operation of the library, including circulation, online public catalog, cataloging, acquisitions, collection development, processing, and serials control. This dataset represents the usage of inventoried items by patrons (~420K records). It contains data starting from 2003 uptill 2016.

library_dataset <- read_csv("_data/Library_Usage.csv")
library_dataset

# A tibble: 423,448 × 15
   Patron Type…¹ Patro…² Total…³ Total…⁴ Age R…⁵ Home …⁶ Home …⁷ Circu…⁸ Circu…⁹
           <dbl> <chr>     <dbl>   <dbl> <chr>   <chr>   <chr>   <chr>   <chr>  
 1             3 SENIOR       28      13 65 to … X       Main L… Novemb… 2012   
 2             0 ADULT        21      10 55 to … X       Main L… October 2015   
 3             0 ADULT       275     559 60 to … X       Main L… January 2015   
 4             0 ADULT        73      38 45 to … M8      Missio… Februa… 2016   
 5             0 ADULT       182      90 45 to … X       Main L… July    2016   
 6             3 SENIOR        1       0 65 to … X       Main L… July    2004   
 7            16 DIGITA…      31       4 65 to … P7      Potrero January 2012   
 8             0 ADULT       547     177 60 to … X       Main L… July    2016   
 9             0 ADULT        28       1 60 to … X       Main L… Decemb… 2015   
10             0 ADULT        77       3 60 to … X       Main L… July    2016   
# … with 423,438 more rows, 6 more variables: `Notice Preference Code` <chr>,
#   `Notice Preference Definition` <chr>, `Provided Email Address` <lgl>,
#   `Year Patron Registered` <dbl>, `Outside of County` <lgl>,
#   `Supervisor District` <dbl>, and abbreviated variable names
#   ¹​`Patron Type Code`, ²​`Patron Type Definition`, ³​`Total Checkouts`,
#   ⁴​`Total Renewals`, ⁵​`Age Range`, ⁶​`Home Library Code`,
#   ⁷​`Home Library Definition`, ⁸​`Circulation Active Month`, …
…
Renaming the columns

library_dataset <- library_dataset %>% 
  rename( 'out_of_county' = 'Outside of County', "patron_type" = 'Patron Type Definition', "total_checkouts" = 'Total Checkouts', "total_renewals"= 'Total Renewals', 'age' = 'Age Range', 'branch' = 'Home Library Definition','active_year' = 'Circulation Active Year', 'active_month' = 'Circulation Active Month', 'notice_preference' = 'Notice Preference Definition', 'provided_email' = 'Provided Email Address', 'year_registered' = 'Year Patron Registered', "outside_of_county" = 'Outside of County')

Cleaning the dataset

Selected the columns with unique characteristic for our visualizations and analysis. Some columns contain the code for the definition example : Home Library Code is the subsequent code for the Home Library Definition.

library_data <- library_dataset%>%
                select(patron_type,total_checkouts,total_renewals,age,branch,active_month,active_year,notice_preference,provided_email,year_registered,outside_of_county)
library_data

# A tibble: 423,448 × 11
   patron…¹ total…² total…³ age   branch activ…⁴ activ…⁵ notic…⁶ provi…⁷ year_…⁸
   <chr>      <dbl>   <dbl> <chr> <chr>  <chr>   <chr>   <chr>   <lgl>     <dbl>
 1 SENIOR        28      13 65 t… Main … Novemb… 2012    email   TRUE       2003
 2 ADULT         21      10 55 t… Main … October 2015    email   TRUE       2003
 3 ADULT        275     559 60 t… Main … January 2015    email   TRUE       2003
 4 ADULT         73      38 45 t… Missi… Februa… 2016    email   TRUE       2003
 5 ADULT        182      90 45 t… Main … July    2016    email   TRUE       2003
 6 SENIOR         1       0 65 t… Main … July    2004    email   TRUE       2003
 7 DIGITAL…      31       4 65 t… Potre… January 2012    email   TRUE       2003
 8 ADULT        547     177 60 t… Main … July    2016    phone   FALSE      2003
 9 ADULT         28       1 60 t… Main … Decemb… 2015    email   TRUE       2003
10 ADULT         77       3 60 t… Main … July    2016    email   TRUE       2003
# … with 423,438 more rows, 1 more variable: outside_of_county <lgl>, and
#   abbreviated variable names ¹​patron_type, ²​total_checkouts, ³​total_renewals,
#   ⁴​active_month, ⁵​active_year, ⁶​notice_preference, ⁷​provided_email,
#   ⁸​year_registered
…
The above shows the different branches of San Franciso Public Library.

branch_data <- read_csv('_data/branch_info.csv')
branch_data

# A tibble: 29 × 4
   branch                             phone_number   address             pincode
   <chr>                              <chr>          <chr>                 <dbl>
 1 Anza                               (415) 355-5717 550 37th Ave. (nea…   94121
 2 Bayview/Linda Brooks-Burton        (415) 355-5757 5075 Third St. (at…   94124
 3 Bernal Heights                     (415) 355-2810 500 Cortland Ave. …   94110
 4 Chinatown                          (415) 355-2888 1135 Powell St. (n…   94108
 5 Eureka Valley/Harvey Milk Memorial (415) 355-5616 1 José Sarria Cour…   94114
 6 Excelsior                          (415) 355-2868 4400 Mission St. (…   94112
 7 Glen Park                          (415) 355-2858 2825 Diamond St. (…   94131
 8 Golden Gate Valley                 (415) 355-5666 1801 Green St. (at…   94123
 9 Ingleside                          (415) 355-2898 1298 Ocean Ave. (a…   94112
10 Main Library                       (415) 557-4400 100 Larkin St. (at…   94102
# … with 19 more rows

Joining the branch_data dataset wih the main dataset based on branch name.

library_data <- left_join(library_data, branch_data, by=c("branch"))
library_data

# A tibble: 423,448 × 15
   patron…¹ total…² total…³ age   branch activ…⁴ activ…⁵ notic…⁶ provi…⁷ year_…⁸
   <chr>      <dbl>   <dbl> <chr> <chr>  <chr>   <chr>   <chr>   <lgl>     <dbl>
 1 SENIOR        28      13 65 t… Main … Novemb… 2012    email   TRUE       2003
 2 ADULT         21      10 55 t… Main … October 2015    email   TRUE       2003
 3 ADULT        275     559 60 t… Main … January 2015    email   TRUE       2003
 4 ADULT         73      38 45 t… Missi… Februa… 2016    email   TRUE       2003
 5 ADULT        182      90 45 t… Main … July    2016    email   TRUE       2003
 6 SENIOR         1       0 65 t… Main … July    2004    email   TRUE       2003
 7 DIGITAL…      31       4 65 t… Potre… January 2012    email   TRUE       2003
 8 ADULT        547     177 60 t… Main … July    2016    phone   FALSE      2003
 9 ADULT         28       1 60 t… Main … Decemb… 2015    email   TRUE       2003
10 ADULT         77       3 60 t… Main … July    2016    email   TRUE       2003
# … with 423,438 more rows, 5 more variables: outside_of_county <lgl>,
#   y_m <chr>, phone_number <chr>, address <chr>, pincode <dbl>, and
#   abbreviated variable names ¹​patron_type, ²​total_checkouts, ³​total_renewals,
#   ⁴​active_month, ⁵​active_year, ⁶​notice_preference, ⁷​provided_email,
#   ⁸​year_registered
…
